[gd_resource type="Animation" format=2]

[resource]
resource_name = "Jump"
loop = true
tracks/0/type = "transform"
tracks/0/path = NodePath("bird/root/leg_r 2")
tracks/0/interp = 1
tracks/0/loop_wrap = true
tracks/0/imported = false
tracks/0/enabled = true
tracks/0/keys = PoolRealArray( 0, 1, -0.0184658, 2.36753, 0.677246, -0.707067, -0.0074679, 0.707067, -0.00746789, 1, 1, 1, 1, 1, -0.0184658, 2.36753, 0.677246, -0.707067, -0.0074679, 0.707067, -0.00746789, 1, 1, 1 )
tracks/1/type = "transform"
tracks/1/path = NodePath("bird/root/leg_l 2")
tracks/1/interp = 1
tracks/1/loop_wrap = true
tracks/1/imported = false
tracks/1/enabled = true
tracks/1/keys = PoolRealArray( 0, 1, -0.0184658, 2.36753, -0.672314, -0.707107, 0, 0.707107, 0, 1, 1, 1, 1, 1, -0.0184658, 2.36753, -0.672314, -0.707107, 0, 0.707107, 0, 1, 1, 1 )
tracks/2/type = "transform"
tracks/2/path = NodePath("bird/root/body 2/head")
tracks/2/interp = 1
tracks/2/loop_wrap = true
tracks/2/imported = false
tracks/2/enabled = true
tracks/2/keys = PoolRealArray( 0, 1, 3.18433e-07, 4.17667, -1.86274e-09, 1.08601e-08, 1.48492e-07, -0.073161, 0.99732, 1, 1, 1, 0.0416667, 1, 3.18433e-07, 4.17667, -1.86274e-09, 1.08601e-08, 1.48492e-07, -0.073161, 0.99732, 1, 1, 1, 0.0833333, 1, 3.49834e-07, 4.17667, -1.74633e-09, -5.43522e-05, -8.38919e-05, -0.0538157, 0.998551, 1, 1, 1, 0.208333, 1, 1.15312e-07, 4.17667, -3.14135e-14, -0.000468348, -0.000723894, 0.0944153, 0.995533, 1, 1, 1, 0.25, 1, -1.19209e-07, 4.17667, -9.3128e-10, -0.00052186, -0.000806619, 0.113694, 0.993515, 1, 1, 1, 0.291667, 1, -1.19209e-07, 4.17667, -9.3128e-10, -0.00052186, -0.000806619, 0.113694, 0.993515, 1, 1, 1, 0.333333, 1, 2.94533e-08, 4.17667, -9.31328e-10, -0.000202081, -0.00258036, 0.0954958, 0.995427, 1, 1, 1, 0.375, 1, 2.87031e-07, 4.17667, -9.31406e-10, 0.00063042, -0.00719218, 0.0479852, 0.998822, 1, 1, 1, 0.458333, 1, 3.49834e-07, 4.17667, -1.04793e-13, 0.00302639, -0.0204175, -0.0898357, 0.995743, 1, 1, 1, 0.5, 1, -1.19209e-07, 4.17667, 4.26323e-14, 0.00415252, -0.0266083, -0.155184, 0.987519, 1, 1, 1, 0.541667, 1, -7.5997e-07, 4.17667, 1.86288e-09, 0.00495602, -0.0310152, -0.202045, 0.978873, 1, 1, 1, 0.583333, 1, -2.90927e-07, 4.17667, 9.44513e-14, 0.00526177, -0.0326897, -0.219929, 0.974954, 1, 1, 1, 0.625, 1, -5.64057e-08, 4.17667, -1.86262e-09, 0.00526177, -0.0326897, -0.219929, 0.974954, 1, 1, 1, 0.666667, 1, -9.31689e-07, 4.17667, 2.93696e-13, 0.00444806, -0.0276424, -0.197297, 0.979944, 1, 1, 1, 0.75, 1, -4.39589e-07, 4.17667, 2.32973e-10, 0.00082839, -0.00517025, -0.0962403, 0.995344, 1, 1, 1, 0.791667, 1, 2.94524e-08, 4.17667, 2.32509e-14, 1.09216e-08, 1.48616e-07, -0.0731611, 0.99732, 1, 1, 1, 0.875, 1, 2.3257e-07, 4.17667, -2.32895e-10, 6.39452e-06, 6.61234e-05, -0.122407, 0.99248, 1, 1, 1, 0.916667, 1, -7.9137e-07, 4.17667, 1.1062e-09, 4.74057e-06, 4.90302e-05, -0.109665, 0.993969, 1, 1, 1, 0.958333, 1, 8.39118e-08, 4.17667, 2.90756e-11, 1.66652e-06, 1.72571e-05, -0.0859486, 0.9963, 1, 1, 1, 1, 1, 3.18433e-07, 4.17667, -1.86274e-09, 1.08601e-08, 1.48492e-07, -0.073161, 0.99732, 1, 1, 1 )
tracks/3/type = "transform"
tracks/3/path = NodePath("bird/root/body 2/wing_r 2")
tracks/3/interp = 1
tracks/3/loop_wrap = true
tracks/3/imported = false
tracks/3/enabled = true
tracks/3/keys = PoolRealArray( 0, 1, -0.10749, 2.98251, 0.9, 0.981045, -0.191278, -0.0094621, 0.0295761, 1, 1, 1, 1, 1, -0.10749, 2.98251, 0.9, 0.981045, -0.191278, -0.0094621, 0.0295761, 1, 1, 1 )
tracks/4/type = "transform"
tracks/4/path = NodePath("bird/root/body 2/wing_l 2")
tracks/4/interp = 1
tracks/4/loop_wrap = true
tracks/4/imported = false
tracks/4/enabled = true
tracks/4/keys = PoolRealArray( 0, 1, -0.163437, 2.8458, -0.9, -0.672832, 0.0898768, 0.712052, 0.179447, 1, 1, 1, 1, 1, -0.163437, 2.8458, -0.9, -0.672832, 0.0898768, 0.712052, 0.179447, 1, 1, 1 )
tracks/5/type = "transform"
tracks/5/path = NodePath("bird/root/body 2")
tracks/5/interp = 1
tracks/5/loop_wrap = true
tracks/5/imported = false
tracks/5/enabled = true
tracks/5/keys = PoolRealArray( 0, 1, -2.00619e-07, 2.69981, -4.83644e-14, -2.01043e-08, -8.27499e-08, -0.445473, 0.895296, 1, 1, 1, 0.0416667, 1, -2.00619e-07, 2.69981, -4.83644e-14, -2.01043e-08, -8.27499e-08, -0.445473, 0.895296, 1, 1, 1, 0.0833333, 1, -9.02877e-08, 2.69981, -9.91423e-14, 0.000145538, 7.23448e-05, -0.473441, 0.880826, 1, 1, 1, 0.166667, 1, -2.00618e-07, 2.69981, -1.33629e-13, 0.000912715, 0.000454081, -0.613465, 0.789721, 1, 1, 1, 0.208333, 1, -9.02876e-08, 2.69981, -9.89758e-14, 0.00125402, 0.00062391, -0.671628, 0.740888, 1, 1, 1, 0.25, 1, 2.00431e-08, 2.69981, 4.65568e-10, 0.0013935, 0.000693313, -0.694622, 0.719373, 1, 1, 1, 0.291667, 1, 2.00431e-08, 2.69981, 4.65568e-10, 0.0013935, 0.000693313, -0.694622, 0.719373, 1, 1, 1, 0.333333, 1, 1.42109e-14, 2.69981, -5.65104e-14, 0.00137341, 0.000732294, -0.67408, 0.738656, 1, 1, 1, 0.375, 1, -1.10331e-07, 2.69981, -2.32893e-10, 0.00131522, 0.000832296, -0.617346, 0.78669, 1, 1, 1, 0.416667, 1, -1.10331e-07, 2.69981, -1.16478e-10, 0.00122123, 0.000964945, -0.53192, 0.846793, 1, 1, 1, 0.458333, 1, -2.00618e-07, 2.69981, -2.91523e-11, 0.00110219, 0.00109895, -0.431038, 0.902332, 1, 1, 1, 0.5, 1, -7.02447e-08, 2.69981, -7.85743e-14, 0.000981551, 0.00120792, -0.334566, 0.942371, 1, 1, 1, 0.541667, 1, 7.02444e-08, 2.69981, 7.35448e-12, 0.000889107, 0.0012775, -0.263637, 0.964621, 1, 1, 1, 0.583333, 1, 0, 2.69981, 0, 0.000852766, 0.00130204, -0.236357, 0.971665, 1, 1, 1, 0.625, 1, 0, 2.69981, 0, 0.000852766, 0.00130204, -0.236357, 0.971665, 1, 1, 1, 0.666667, 1, 0, 2.69981, 0, 0.000750193, 0.00114445, -0.283401, 0.959, 1, 1, 1, 0.708333, 1, -1.57829e-13, 2.69981, -8.67673e-21, 0.000501721, 0.000763429, -0.388631, 0.921393, 1, 1, 1, 0.75, 1, -1.10331e-07, 2.69981, -6.06547e-15, 0.000212368, 0.000321309, -0.495917, 0.86837, 1, 1, 1, 0.791667, 1, -1.5783e-13, 2.69981, -8.9992e-20, -2.84675e-08, -8.79801e-08, -0.557363, 0.830269, 1, 1, 1, 0.833333, 1, -1.1033e-07, 2.69981, -6.29923e-14, -0.000103344, -0.000104739, -0.572582, 0.819848, 1, 1, 1, 0.875, 1, 1.30374e-07, 2.69981, -2.92192e-11, -0.00013766, -0.000106589, -0.574742, 0.818334, 1, 1, 1, 0.916667, 1, -2.00433e-08, 2.69981, -2.05687e-14, -0.000102213, -7.91597e-05, -0.542406, 0.840117, 1, 1, 1, 0.958333, 1, -9.02882e-08, 2.69981, 1.44243e-11, -3.57852e-05, -2.77574e-05, -0.480025, 0.877255, 1, 1, 1, 1, 1, -2.00619e-07, 2.69981, -4.83644e-14, -2.01043e-08, -8.27499e-08, -0.445473, 0.895296, 1, 1, 1 )
tracks/6/type = "transform"
tracks/6/path = NodePath("bird/root")
tracks/6/interp = 1
tracks/6/loop_wrap = true
tracks/6/imported = false
tracks/6/enabled = true
tracks/6/keys = PoolRealArray( 0, 1, 0, 0, 0, 0, 0.00258185, 0, 0.999997, 1, 1, 1, 0.0416667, 1, 0, 0, 0, 0, 0.00258185, 0, 0.999997, 1, 1, 1, 0.0833333, 1, 0, 0, 0, -5.05578e-05, 0.00258136, 0.0195819, 0.999805, 1, 1, 1, 0.208333, 1, 0, 0, 0, -0.000435575, 0.00254485, 0.168706, 0.985663, 1, 1, 1, 0.25, 1, 0, 0, 0, -0.000485324, 0.00253583, 0.187974, 0.982171, 1, 1, 1, 0.291667, 1, 0, 0, 0, -0.000485324, 0.00253583, 0.187974, 0.982171, 1, 1, 1, 0.333333, 1, 0, 0, 0, -0.000456086, 0.00237828, 0.169104, 0.985595, 1, 1, 1, 0.375, 1, 0, 0, 0, -0.000380874, 0.00197504, 0.120771, 0.992679, 1, 1, 1, 0.416667, 1, 0, 0, 0, -0.000279112, 0.00143385, 0.0558354, 0.998439, 1, 1, 1, 0.458333, 1, 0, 0.999999, 0, -0.000172701, 0.000875565, -0.0115201, 0.999933, 1, 1, 1, 0.5, 1, 0, 2.35802, 0, -8.29364e-05, 0.000415059, -0.0679162, 0.997691, 1, 1, 1, 0.541667, 1, 0, 3.64197, 0, -2.22561e-05, 0.00011014, -0.105824, 0.994385, 1, 1, 1, 0.583333, 1, 0, 5, 0, 0, 0, -0.119684, 0.992812, 1, 1, 1, 0.625, 1, 0, 6, 0, 0, 0, -0.119684, 0.992812, 1, 1, 1, 0.666667, 1, 0, 5.0625, 0, 0, 0, -0.0836219, 0.996498, 1, 1, 1, 0.75, 1, 0, 0.937498, 0, 0, 0, 0.0770177, 0.99703, 1, 1, 1, 0.791667, 1, 0, 0, 0, 0, 3.84176e-10, 0.113088, 0.993585, 1, 1, 1, 0.833333, 1, 0, 0, 0, 0, 0.000268554, 0.101351, 0.994851, 1, 1, 1, 0.958333, 1, 0, 0, 0, 0, 0.00231449, 0.011768, 0.999928, 1, 1, 1, 1, 1, 0, 0, 0, 0, 0.00258185, 0, 0.999997, 1, 1, 1 )
