[gd_resource type="DynamicFont" load_steps=2 format=2]

[sub_resource type="DynamicFontData" id=3]
font_path = "res://gui/fonts/FiraSans-Regular.otf"

[resource]
use_mipmaps = true
use_filter = true
font_data = SubResource( 3 )
