<?xml version="1.0" encoding="UTF-8" standalone="no"?>
<svg
   xmlns:dc="http://purl.org/dc/elements/1.1/"
   xmlns:cc="http://creativecommons.org/ns#"
   xmlns:rdf="http://www.w3.org/1999/02/22-rdf-syntax-ns#"
   xmlns:svg="http://www.w3.org/2000/svg"
   xmlns="http://www.w3.org/2000/svg"
   xmlns:sodipodi="http://sodipodi.sourceforge.net/DTD/sodipodi-0.dtd"
   xmlns:inkscape="http://www.inkscape.org/namespaces/inkscape"
   width="200"
   height="100"
   viewBox="0 0 52.916664 26.458333"
   version="1.1"
   id="svg8"
   inkscape:version="1.0.1 (3bc2e813f5, 2020-09-07)"
   sodipodi:docname="loading_4.svg">
  <defs
     id="defs2" />
  <sodipodi:namedview
     id="base"
     pagecolor="#ffffff"
     bordercolor="#666666"
     borderopacity="1.0"
     inkscape:pageopacity="0.0"
     inkscape:pageshadow="2"
     inkscape:zoom="3.959798"
     inkscape:cx="104.87909"
     inkscape:cy="27.605415"
     inkscape:document-units="px"
     inkscape:current-layer="layer1"
     inkscape:document-rotation="0"
     showgrid="false"
     inkscape:window-width="1920"
     inkscape:window-height="1024"
     inkscape:window-x="0"
     inkscape:window-y="0"
     inkscape:window-maximized="1"
     inkscape:snap-global="true"
     fit-margin-top="0"
     fit-margin-left="0"
     fit-margin-right="0"
     fit-margin-bottom="0"
     units="px"
     showguides="true"
     inkscape:guide-bbox="true"
     inkscape:snap-nodes="false"
     inkscape:snap-center="true">
    <sodipodi:guide
       position="26.458333,28.663307"
       orientation="-1,0"
       id="guide840"
       inkscape:label=""
       inkscape:locked="false"
       inkscape:color="rgb(0,0,255)" />
    <sodipodi:guide
       position="26.458333,13.229166"
       orientation="0,1"
       id="guide842"
       inkscape:label=""
       inkscape:locked="false"
       inkscape:color="rgb(0,0,255)" />
  </sodipodi:namedview>
  <metadata
     id="metadata5">
    <rdf:RDF>
      <cc:Work
         rdf:about="">
        <dc:format>image/svg+xml</dc:format>
        <dc:type
           rdf:resource="http://purl.org/dc/dcmitype/StillImage" />
        <dc:title></dc:title>
      </cc:Work>
    </rdf:RDF>
  </metadata>
  <g
     inkscape:groupmode="layer"
     id="layer2"
     inkscape:label="Layer 2"
     transform="translate(-1.8010299,-7.2763773)" />
  <g
     inkscape:label="Layer 1"
     inkscape:groupmode="layer"
     id="layer1"
     transform="translate(-1.8010299,-7.2763773)">
    <g
       id="g838"
       transform="translate(4.2482683,1.0912343)"
       style="fill:#ffffff;fill-opacity:1;stroke:#2f84bc;stroke-opacity:1">
      <path
         style="fill:#ffffff;fill-opacity:1;stroke:#2f84bc;stroke-width:0.17548;stroke-linecap:butt;stroke-linejoin:miter;stroke-miterlimit:4;stroke-dasharray:none;stroke-opacity:1"
         d="m 28.318724,14.93191 c -2.548948,-1.723239 -4.275634,-1.414482 -6.730218,-0.147217 1.549423,7.319204 -0.243741,9.796611 -1.852269,14.047946 8.50095,-5.544865 9.650089,-13.178967 8.582487,-13.900729 z"
         id="path2629"
         sodipodi:nodetypes="sccs" />
      <path
         style="fill:#ffffff;fill-opacity:1;stroke:#2f84bc;stroke-width:0.2;stroke-linecap:butt;stroke-linejoin:miter;stroke-miterlimit:4;stroke-dasharray:none;stroke-opacity:1"
         d="m 1.8209071,14.794968 13.6029809,2.75895 c 10.035278,3.931405 17.545791,1.80082 22.669892,-5.804226 l 8.107502,-0.612621 -8.014968,-0.732928 C 36.575383,6.9989364 33.173454,6.3414473 30.009209,9.0685211 26.844963,11.795596 23.016873,14.406777 14.457818,14.737745 10.215859,14.901776 1.8209071,14.794965 1.8209071,14.794965 Z"
         id="path833"
         sodipodi:nodetypes="ccccczsc" />
      <path
         style="fill:#ffffff;fill-opacity:1;stroke:#2f84bc;stroke-width:0.2;stroke-linecap:butt;stroke-linejoin:miter;stroke-miterlimit:4;stroke-dasharray:none;stroke-opacity:1"
         d="m 29.013488,13.219038 c -3.401666,-0.851933 -5.130573,0.151849 -7.265403,2.465939 4.512629,7.23481 3.55792,10.587116 3.492475,15.767309 6.942928,-9.252394 5.197683,-17.876424 3.772928,-18.233248 z"
         id="path835-3"
         sodipodi:nodetypes="sccs" />
    </g>
  </g>
</svg>
