[gd_scene load_steps=5 format=2]

[ext_resource path="res://prefabs/spawn_point/SpawnPoint.gd" type="Script" id=1]
[ext_resource path="res://assets/debug_arrow.glb" type="PackedScene" id=2]
[ext_resource path="res://gui/icons/spawn.svg" type="Texture" id=3]

[sub_resource type="SpatialMaterial" id=1]
flags_unshaded = true
albedo_color = Color( 1, 0.0156863, 0.0156863, 1 )

[node name="SpawnPoint" type="Spatial" groups=[
"SpawnPoint",
]]
script = ExtResource( 1 )

[node name="EditorIcon" type="Sprite3D" parent="."]
opacity = 0.5
pixel_size = 0.003
billboard = 1
texture = ExtResource( 3 )

[node name="RayCast" type="RayCast" parent="."]
cast_to = Vector3( 0, -10, 0 )
collision_mask = 2

[node name="debug_arrow" parent="." instance=ExtResource( 2 )]
transform = Transform( 2, 0, 0, 0, 2, 0, 0, 0, 2, 0, 0, 0 )

[node name="Cylinder" parent="debug_arrow" index="0"]
material/0 = SubResource( 1 )

[editable path="debug_arrow"]
